ISO-10303-21;
HEADER;
FILE_DESCRIPTION (( 'STEP AP214' ),
    '1' );
FILE_NAME ('BC558.STEP',
    '2021-11-05T02:45:46',
    ( '' ),
    ( '' ),
    'SwSTEP 2.0',
    'SolidWorks 2017',
    '' );
FILE_SCHEMA (( 'AUTOMOTIVE_DESIGN' ));
ENDSEC;

DATA;
#1 = DIRECTION ( 'NONE',  ( 0.0000000000000000000, 0.0000000000000000000, -1.000000000000000000 ) ) ;
#2 = EDGE_CURVE ( 'NONE', #376, #610, #530, .T. ) ;
#3 = CARTESIAN_POINT ( 'NONE',  ( 2.281673065447708600, 5.330000000000000100, 1.429999999999999300 ) ) ;
#4 = EDGE_CURVE ( 'NONE', #162, #336, #683, .T. ) ;
#5 = CARTESIAN_POINT ( 'NONE',  ( 2.281673065447708600, 0.0000000000000000000, 1.430000000000000200 ) ) ;
#6 = CARTESIAN_POINT ( 'NONE',  ( -0.1337573231018867000, 1.665000000000000500, -2.189999999999999900 ) ) ;
#7 = CIRCLE ( 'NONE', #497, 1.000000000000000000 ) ;
#8 = CARTESIAN_POINT ( 'NONE',  ( 0.6162471185797384600, 1.866982262847828100, -2.110811703732137000 ) ) ;
#9 = ORIENTED_EDGE ( 'NONE', *, *, #840, .T. ) ;
#10 = DIRECTION ( 'NONE',  ( 1.000000000000000000, -2.730831502644775200E-016, 0.0000000000000000000 ) ) ;
#11 = SURFACE_STYLE_USAGE ( .BOTH. , #481 ) ;
#12 = CARTESIAN_POINT ( 'NONE',  ( 1.000000000000000400, 2.665000000000000500, -1.969722204358699300 ) ) ;
#13 = CARTESIAN_POINT ( 'NONE',  ( -1.500000000000000400, 1.851909088590096600, 0.2049999999999999900 ) ) ;
#14 = DIRECTION ( 'NONE',  ( 1.000000000000000000, 0.0000000000000000000, 0.0000000000000000000 ) ) ;
#15 = PLANE ( 'NONE',  #541 ) ;
#16 = EDGE_CURVE ( 'NONE', #49, #761, #140, .T. ) ;
#17 = AXIS2_PLACEMENT_3D ( 'NONE', #358, #211, #348 ) ;
#18 = COLOUR_RGB ( '',0.7921568627450980000, 0.8196078431372548800, 0.9333333333333333500 ) ;
#19 = CARTESIAN_POINT ( 'NONE',  ( 0.2648514608970463100, 1.691866039277905200, -2.178382295032104600 ) ) ;
#20 = DIRECTION ( 'NONE',  ( 0.0000000000000000000, -0.0000000000000000000, 1.000000000000000000 ) ) ;
#21 = ORIENTED_EDGE ( 'NONE', *, *, #87, .F. ) ;
#22 = PRODUCT_CONTEXT ( 'NONE', #484, 'mechanical' ) ;
#23 = VERTEX_POINT ( 'NONE', #330 ) ;
#24 = MANIFOLD_SOLID_BREP ( 'NONE', #765 ) ;
#25 = ORIENTED_EDGE ( 'NONE', *, *, #539, .T. ) ;
#26 = EDGE_CURVE ( 'NONE', #336, #101, #608, .T. ) ;
#27 = ADVANCED_FACE ( 'NONE', ( #469 ), #794, .F. ) ;
#28 = CARTESIAN_POINT ( 'NONE',  ( -0.1337472061547010900, 3.665000000000001400, -2.190000000000000400 ) ) ;
#29 = ADVANCED_FACE ( 'NONE', ( #623 ), #315, .F. ) ;
#30 = CARTESIAN_POINT ( 'NONE',  ( -1.040000000000000500, 3.439999999999999900, 0.2049999999999999900 ) ) ;
#31 = CARTESIAN_POINT ( 'NONE',  ( -0.6162471185797329100, 3.463017737152176400, -2.110811703732138800 ) ) ;
#32 = ORIENTED_EDGE ( 'NONE', *, *, #470, .T. ) ;
#33 = ADVANCED_FACE ( 'NONE', ( #400 ), #56, .T. ) ;
#34 = CARTESIAN_POINT ( 'NONE',  ( -0.8723602085111079600, 3.170837162027971200, -2.025027661707008000 ) ) ;
#35 = EDGE_CURVE ( 'NONE', #336, #133, #665, .T. ) ;
#36 = DIRECTION ( 'NONE',  ( 0.0000000000000000000, -0.0000000000000000000, 1.000000000000000000 ) ) ;
#37 = CARTESIAN_POINT ( 'NONE',  ( -2.371154781957516700, 5.330000000000000100, 0.3949999999999996300 ) ) ;
#38 = LINE ( 'NONE', #331, #362 ) ;
#39 = EDGE_CURVE ( 'NONE', #564, #776, #424, .T. ) ;
#40 = CYLINDRICAL_SURFACE ( 'NONE', #429, 2.379999999999999900 ) ;
#41 = ORIENTED_EDGE ( 'NONE', *, *, #337, .F. ) ;
#42 = CARTESIAN_POINT ( 'NONE',  ( 0.2299999999999994500, 3.439999999999999900, 0.2049999999999999900 ) ) ;
#43 = EDGE_LOOP ( 'NONE', ( #179, #588, #210, #791 ) ) ;
#44 = CARTESIAN_POINT ( 'NONE',  ( -0.2299999999999997300, -12.18000000000000000, 0.2049999999999999900 ) ) ;
#45 = VECTOR ( 'NONE', #499, 1000.000000000000100 ) ;
#46 = EDGE_CURVE ( 'NONE', #376, #62, #512, .T. ) ;
#47 = LINE ( 'NONE', #684, #480 ) ;
#48 = EDGE_CURVE ( 'NONE', #776, #62, #482, .T. ) ;
#49 = VERTEX_POINT ( 'NONE', #189 ) ;
#50 = DIRECTION ( 'NONE',  ( 1.000000000000000000, 0.0000000000000000000, 0.0000000000000000000 ) ) ;
#51 = ORIENTED_EDGE ( 'NONE', *, *, #232, .T. ) ;
#52 = DIRECTION ( 'NONE',  ( 0.0000000000000000000, -1.000000000000000000, 0.0000000000000000000 ) ) ;
#53 = EDGE_LOOP ( 'NONE', ( #449, #613, #489, #208, #152, #306, #471 ) ) ;
#54 = CARTESIAN_POINT ( 'NONE',  ( -1.040000000000000300, -12.18000000000000000, 0.2049999999999999900 ) ) ;
#55 = AXIS2_PLACEMENT_3D ( 'NONE', #354, #812, #14 ) ;
#56 = PLANE ( 'NONE',  #728 ) ;
#57 = CARTESIAN_POINT ( 'NONE',  ( 3.263683719727698100E-016, 2.665000000000000500, -1.850000000000000100 ) ) ;
#58 = SURFACE_STYLE_FILL_AREA ( #377 ) ;
#59 = VERTEX_POINT ( 'NONE', #589 ) ;
#60 = EDGE_LOOP ( 'NONE', ( #88, #185, #508, #860 ) ) ;
#61 = SURFACE_STYLE_USAGE ( .BOTH. , #855 ) ;
#62 = VERTEX_POINT ( 'NONE', #743 ) ;
#63 = CARTESIAN_POINT ( 'NONE',  ( -0.2661860310790409300, 1.692332373313063700, -2.178194561159110700 ) ) ;
#64 = DIRECTION ( 'NONE',  ( -1.000000000000000000, 0.0000000000000000000, 1.425535746865771500E-016 ) ) ;
#65 = LINE ( 'NONE', #465, #839 ) ;
#66 = FACE_OUTER_BOUND ( 'NONE', #311, .T. ) ;
#67 = CARTESIAN_POINT ( 'NONE',  ( -1.500000000000000400, 3.439999999999999900, 0.2049999999999999900 ) ) ;
#68 = EDGE_CURVE ( 'NONE', #284, #401, #177, .T. ) ;
#69 = DIRECTION ( 'NONE',  ( -0.08613445378151209100, 0.0000000000000000000, 0.9962835218308895300 ) ) ;
#70 = ORIENTED_EDGE ( 'NONE', *, *, #417, .T. ) ;
#71 = EDGE_LOOP ( 'NONE', ( #9, #598, #402, #307 ) ) ;
#72 = PLANE ( 'NONE',  #793 ) ;
#73 = VERTEX_POINT ( 'NONE', #474 ) ;
#74 = DIRECTION ( 'NONE',  ( 0.0000000000000000000, 1.000000000000000000, 0.0000000000000000000 ) ) ;
#75 = APPLICATION_PROTOCOL_DEFINITION ( 'draft international standard', 'automotive_design', 1998, #153 ) ;
#76 = DIRECTION ( 'NONE',  ( -0.0000000000000000000, 0.0000000000000000000, 1.000000000000000000 ) ) ;
#77 = CARTESIAN_POINT ( 'NONE',  ( 6.233452207660030000E-017, 1.665000000000000300, -2.189999999999999900 ) ) ;
#78 = EDGE_CURVE ( 'NONE', #23, #566, #168, .T. ) ;
#79 = AXIS2_PLACEMENT_3D ( 'NONE', #387, #841, #36 ) ;
#80 = DIRECTION ( 'NONE',  ( -0.0000000000000000000, -1.000000000000000000, 0.0000000000000000000 ) ) ;
#81 = CYLINDRICAL_SURFACE ( 'NONE', #141, 1.000000000000000000 ) ;
#82 = FACE_OUTER_BOUND ( 'NONE', #171, .T. ) ;
#83 = ORIENTED_EDGE ( 'NONE', *, *, #2, .F. ) ;
#84 = ORIENTED_EDGE ( 'NONE', *, *, #403, .T. ) ;
#85 = ADVANCED_FACE ( 'NONE', ( #783 ), #535, .F. ) ;
#86 = ORIENTED_EDGE ( 'NONE', *, *, #35, .T. ) ;
#87 = EDGE_CURVE ( 'NONE', #625, #222, #346, .T. ) ;
#88 = ORIENTED_EDGE ( 'NONE', *, *, #326, .F. ) ;
#89 = CARTESIAN_POINT ( 'NONE',  ( 0.0000000000000000000, 3.439999999999999900, 0.2049999999999999900 ) ) ;
#90 = CARTESIAN_POINT ( 'NONE',  ( -0.9999999999999995600, 2.665000000000000500, -1.850000000000000100 ) ) ;
#91 =( NAMED_UNIT ( * ) PLANE_ANGLE_UNIT ( ) SI_UNIT ( $, .RADIAN. ) );
#92 = FACE_OUTER_BOUND ( 'NONE', #195, .T. ) ;
#93 = AXIS2_PLACEMENT_3D ( 'NONE', #213, #143, #267 ) ;
#94 = PLANE ( 'NONE',  #79 ) ;
#95 = LINE ( 'NONE', #251, #240 ) ;
#96 = ADVANCED_FACE ( 'NONE', ( #334 ), #138, .F. ) ;
#97 = ORIENTED_EDGE ( 'NONE', *, *, #559, .F. ) ;
#98 = ORIENTED_EDGE ( 'NONE', *, *, #403, .F. ) ;
#99 = DIRECTION ( 'NONE',  ( 1.000000000000000000, 0.0000000000000000000, 0.0000000000000000000 ) ) ;
#100 = EDGE_CURVE ( 'NONE', #234, #610, #242, .T. ) ;
#101 = VERTEX_POINT ( 'NONE', #859 ) ;
#102 = EDGE_CURVE ( 'NONE', #493, #386, #451, .T. ) ;
#103 = ADVANCED_FACE ( 'NONE', ( #321 ), #467, .F. ) ;
#104 = CARTESIAN_POINT ( 'NONE',  ( 1.190501983501664600E-014, 3.665000000000000500, -2.189999999999999900 ) ) ;
#105 = CARTESIAN_POINT ( 'NONE',  ( 0.2299999999999999500, 3.439999999999999900, -0.2049999999999999900 ) ) ;
#106 = CIRCLE ( 'NONE', #289, 2.379999999999999900 ) ;
#107 = VECTOR ( 'NONE', #163, 1000.000000000000000 ) ;
#108 = CARTESIAN_POINT ( 'NONE',  ( 2.326828918379968400E-017, 5.330000000000000100, -2.189999999999999900 ) ) ;
#109 = CLOSED_SHELL ( 'NONE', ( #752, #27, #154, #291, #547, #486 ) ) ;
#110 = DIRECTION ( 'NONE',  ( 1.000000000000000000, 0.0000000000000000000, -0.0000000000000000000 ) ) ;
#111 = ORIENTED_EDGE ( 'NONE', *, *, #622, .T. ) ;
#112 = AXIS2_PLACEMENT_3D ( 'NONE', #216, #687, #283 ) ;
#113 = EDGE_CURVE ( 'NONE', #639, #101, #582, .T. ) ;
#114 = LINE ( 'NONE', #799, #560 ) ;
#115 = CARTESIAN_POINT ( 'NONE',  ( -1.900000000000000400, 3.439999999999999900, 0.2049999999999999900 ) ) ;
#116 = FACE_OUTER_BOUND ( 'NONE', #53, .T. ) ;
#117 = VECTOR ( 'NONE', #454, 1000.000000000000000 ) ;
#118 = ORIENTED_EDGE ( 'NONE', *, *, #763, .T. ) ;
#119 = DIRECTION ( 'NONE',  ( 0.0000000000000000000, 0.0000000000000000000, -1.000000000000000000 ) ) ;
#120 = ORIENTED_EDGE ( 'NONE', *, *, #87, .T. ) ;
#121 = ORIENTED_EDGE ( 'NONE', *, *, #68, .T. ) ;
#122 = CARTESIAN_POINT ( 'NONE',  ( -2.371154781957516700, 0.0000000000000000000, 0.3949999999999996300 ) ) ;
#123 = DIRECTION ( 'NONE',  ( 0.0000000000000000000, 0.0000000000000000000, -1.000000000000000000 ) ) ;
#124 = DIRECTION ( 'NONE',  ( -1.000000000000000000, 0.0000000000000000000, 0.0000000000000000000 ) ) ;
#125 = FACE_OUTER_BOUND ( 'NONE', #60, .T. ) ;
#126 = LINE ( 'NONE', #108, #787 ) ;
#127 = EDGE_CURVE ( 'NONE', #493, #568, #230, .T. ) ;
#128 = DIRECTION ( 'NONE',  ( 0.0000000000000000000, 1.000000000000000000, 0.0000000000000000000 ) ) ;
#129 = FACE_OUTER_BOUND ( 'NONE', #506, .T. ) ;
#130 = VECTOR ( 'NONE', #842, 1000.000000000000000 ) ;
#131 = ORIENTED_EDGE ( 'NONE', *, *, #681, .F. ) ;
#132 = CARTESIAN_POINT ( 'NONE',  ( -2.371154781957516700, 5.330000000000000100, 0.3949999999999996300 ) ) ;
#133 = VERTEX_POINT ( 'NONE', #361 ) ;
#134 = ORIENTED_EDGE ( 'NONE', *, *, #667, .F. ) ;
#135 = PLANE ( 'NONE',  #838 ) ;
#136 = AXIS2_PLACEMENT_3D ( 'NONE', #602, #74, #1 ) ;
#137 =( LENGTH_UNIT ( ) NAMED_UNIT ( * ) SI_UNIT ( .MILLI., .METRE. ) );
#138 = PLANE ( 'NONE',  #581 ) ;
#139 = VECTOR ( 'NONE', #231, 1000.000000000000000 ) ;
#140 = LINE ( 'NONE', #44, #849 ) ;
#141 = AXIS2_PLACEMENT_3D ( 'NONE', #57, #119, #124 ) ;
#142 = EDGE_LOOP ( 'NONE', ( #492, #97, #685, #243 ) ) ;
#143 = DIRECTION ( 'NONE',  ( 1.000000000000000000, 1.220057189232471600E-016, -0.0000000000000000000 ) ) ;
#144 = EDGE_CURVE ( 'NONE', #258, #222, #502, .T. ) ;
#145 = CARTESIAN_POINT ( 'NONE',  ( -0.6163998147424107900, 1.867103604260295800, -2.110769536751856600 ) ) ;
#146 =( NAMED_UNIT ( * ) PLANE_ANGLE_UNIT ( ) SI_UNIT ( $, .RADIAN. ) );
#147 = PRESENTATION_STYLE_ASSIGNMENT (( #379 ) ) ;
#148 = VECTOR ( 'NONE', #209, 1000.000000000000000 ) ;
#149 = VECTOR ( 'NONE', #720, 1000.000000000000000 ) ;
#150 = VERTEX_POINT ( 'NONE', #546 ) ;
#151 =( GEOMETRIC_REPRESENTATION_CONTEXT ( 3 ) GLOBAL_UNCERTAINTY_ASSIGNED_CONTEXT ( ( #477 ) ) GLOBAL_UNIT_ASSIGNED_CONTEXT ( ( #766, #545, #693 ) ) REPRESENTATION_CONTEXT ( 'NONE', 'WORKASPACE' ) );
#152 = ORIENTED_EDGE ( 'NONE', *, *, #446, .T. ) ;
#153 = APPLICATION_CONTEXT ( 'automotive_design' ) ;
#154 = ADVANCED_FACE ( 'NONE', ( #406 ), #630, .F. ) ;
#155 = CARTESIAN_POINT ( 'NONE',  ( -1.500000000000000400, -12.18000000000000000, -0.2050000000000000400 ) ) ;
#156 = DIRECTION ( 'NONE',  ( 0.0000000000000000000, 0.0000000000000000000, -1.000000000000000000 ) ) ;
#157 = ADVANCED_FACE ( 'NONE', ( #664 ), #831, .F. ) ;
#158 = CARTESIAN_POINT ( 'NONE',  ( 1.900000000000000400, 1.851909088590096600, 0.2049999999999999900 ) ) ;
#159 = EDGE_CURVE ( 'NONE', #568, #73, #510, .T. ) ;
#160 = ORIENTED_EDGE ( 'NONE', *, *, #587, .F. ) ;
#161 = ORIENTED_EDGE ( 'NONE', *, *, #515, .T. ) ;
#162 = VERTEX_POINT ( 'NONE', #692 ) ;
#163 = DIRECTION ( 'NONE',  ( -1.000000000000000000, -0.0000000000000000000, 0.0000000000000000000 ) ) ;
#164 = CARTESIAN_POINT ( 'NONE',  ( 6.233452207660030000E-017, 1.665000000000000300, -2.189999999999999900 ) ) ;
#165 = FACE_OUTER_BOUND ( 'NONE', #71, .T. ) ;
#166 = CARTESIAN_POINT ( 'NONE',  ( -0.9726633365456227600, 2.931100735853907800, -1.982852021942749900 ) ) ;
#167 = LINE ( 'NONE', #543, #528 ) ;
#168 = LINE ( 'NONE', #278, #504 ) ;
#169 = EDGE_LOOP ( 'NONE', ( #473, #652, #721, #745 ) ) ;
#170 = CARTESIAN_POINT ( 'NONE',  ( -1.500000000000000400, -12.18000000000000000, -0.2049999999999999900 ) ) ;
#171 = EDGE_LOOP ( 'NONE', ( #118, #862, #553, #98 ) ) ;
#172 = B_SPLINE_CURVE_WITH_KNOTS ( 'NONE', 3,
 ( #628, #28, #496, #297, #31, #565, #34, #166, #558, #634 ),
 .UNSPECIFIED., .F., .F.,
 ( 4, 2, 2, 2, 4 ),
 ( 0.0000000000000000000, 0.0003952333549207480500, 0.0007904667098414961100, 0.001185700064762244200, 0.001580933419682992200 ),
 .UNSPECIFIED. ) ;
#173 = CARTESIAN_POINT ( 'NONE',  ( 0.0000000000000000000, 0.0000000000000000000, 0.2049999999999999900 ) ) ;
#174 = DIRECTION ( 'NONE',  ( 0.08613445378151207700, 0.0000000000000000000, 0.9962835218308895300 ) ) ;
#175 = LINE ( 'NONE', #415, #659 ) ;
#176 = PRESENTATION_STYLE_ASSIGNMENT (( #193 ) ) ;
#177 = LINE ( 'NONE', #727, #435 ) ;
#178 = ORIENTED_EDGE ( 'NONE', *, *, #763, .F. ) ;
#179 = ORIENTED_EDGE ( 'NONE', *, *, #353, .F. ) ;
#180 = AXIS2_PLACEMENT_3D ( 'NONE', #533, #201, #64 ) ;
#181 = CARTESIAN_POINT ( 'NONE',  ( 0.2299999999999999500, 3.439999999999999900, 0.2049999999999999900 ) ) ;
#182 = EDGE_CURVE ( 'NONE', #287, #162, #729, .T. ) ;
#183 = CARTESIAN_POINT ( 'NONE',  ( 0.9731274036933689200, 2.929771953370870400, -1.982650132336949400 ) ) ;
#184 = PRESENTATION_STYLE_ASSIGNMENT (( #373 ) ) ;
#185 = ORIENTED_EDGE ( 'NONE', *, *, #577, .T. ) ;
#186 = ORIENTED_EDGE ( 'NONE', *, *, #587, .T. ) ;
#187 = CARTESIAN_POINT ( 'NONE',  ( -1.500000000000000400, 3.439999999999999900, 0.2049999999999999900 ) ) ;
#188 =( GEOMETRIC_REPRESENTATION_CONTEXT ( 3 ) GLOBAL_UNCERTAINTY_ASSIGNED_CONTEXT ( ( #233 ) ) GLOBAL_UNIT_ASSIGNED_CONTEXT ( ( #853, #525, #663 ) ) REPRESENTATION_CONTEXT ( 'NONE', 'WORKASPACE' ) );
#189 = CARTESIAN_POINT ( 'NONE',  ( -0.2299999999999999500, -12.18000000000000000, -0.2049999999999999900 ) ) ;
#190 = PLANE ( 'NONE',  #699 ) ;
#191 = DIRECTION ( 'NONE',  ( 0.0000000000000000000, -0.0000000000000000000, -1.000000000000000000 ) ) ;
#192 = LINE ( 'NONE', #268, #857 ) ;
#193 = SURFACE_STYLE_USAGE ( .BOTH. , #531 ) ;
#194 = MECHANICAL_DESIGN_GEOMETRIC_PRESENTATION_REPRESENTATION (  '', ( #649 ), #710 ) ;
#195 = EDGE_LOOP ( 'NONE', ( #612, #134, #438, #760 ) ) ;
#196 = DIRECTION ( 'NONE',  ( 0.0000000000000000000, 1.000000000000000000, 0.0000000000000000000 ) ) ;
#197 = ORIENTED_EDGE ( 'NONE', *, *, #642, .F. ) ;
#198 = DIRECTION ( 'NONE',  ( 0.0000000000000000000, 0.0000000000000000000, -1.000000000000000000 ) ) ;
#199 = EDGE_LOOP ( 'NONE', ( #540, #513, #461, #378 ) ) ;
#200 = CARTESIAN_POINT ( 'NONE',  ( -1.500000000000000400, 1.851909088590096600, -0.2049999999999999900 ) ) ;
#201 = DIRECTION ( 'NONE',  ( -1.425535746865771500E-016, 0.0000000000000000000, -1.000000000000000000 ) ) ;
#202 = CARTESIAN_POINT ( 'NONE',  ( -0.8723951551775024300, 2.159027842333549600, -2.025019691692510300 ) ) ;
#203 = DIRECTION ( 'NONE',  ( -0.0000000000000000000, 0.0000000000000000000, 1.000000000000000000 ) ) ;
#204 = LINE ( 'NONE', #503, #139 ) ;
#205 = VECTOR ( 'NONE', #218, 1000.000000000000000 ) ;
#206 =( NAMED_UNIT ( * ) PLANE_ANGLE_UNIT ( ) SI_UNIT ( $, .RADIAN. ) );
#207 = DIRECTION ( 'NONE',  ( 0.0000000000000000000, -1.000000000000000000, 0.0000000000000000000 ) ) ;
#208 = ORIENTED_EDGE ( 'NONE', *, *, #670, .F. ) ;
#209 = DIRECTION ( 'NONE',  ( 0.0000000000000000000, -0.0000000000000000000, -1.000000000000000000 ) ) ;
#210 = ORIENTED_EDGE ( 'NONE', *, *, #522, .T. ) ;
#211 = DIRECTION ( 'NONE',  ( -1.000000000000000000, 0.0000000000000000000, 0.0000000000000000000 ) ) ;
#212 = DIRECTION ( 'NONE',  ( 0.0000000000000000000, -0.0000000000000000000, -1.000000000000000000 ) ) ;
#213 = CARTESIAN_POINT ( 'NONE',  ( -0.2299999999999999500, 3.439999999999999900, 0.2049999999999999900 ) ) ;
#214 = FILL_AREA_STYLE_COLOUR ( '', #643 ) ;
#215 = AXIS2_PLACEMENT_3D ( 'NONE', #236, #708, #774 ) ;
#216 = CARTESIAN_POINT ( 'NONE',  ( -1.040000000000000500, 3.439999999999999900, 0.2049999999999999900 ) ) ;
#217 = ADVANCED_FACE ( 'NONE', ( #538 ), #427, .F. ) ;
#218 = DIRECTION ( 'NONE',  ( 0.0000000000000000000, 1.000000000000000000, 0.0000000000000000000 ) ) ;
#219 = LINE ( 'NONE', #770, #391 ) ;
#220 = CARTESIAN_POINT ( 'NONE',  ( 3.263683719727698100E-016, 2.665000000000000500, -1.850000000000000100 ) ) ;
#221 = ORIENTED_EDGE ( 'NONE', *, *, #144, .F. ) ;
#222 = VERTEX_POINT ( 'NONE', #416 ) ;
#223 = EDGE_LOOP ( 'NONE', ( #852, #161, #366, #674 ) ) ;
#224 = DIRECTION ( 'NONE',  ( 1.000000000000000000, -0.0000000000000000000, 0.0000000000000000000 ) ) ;
#225 = CARTESIAN_POINT ( 'NONE',  ( 1.000000000000000400, 2.665000000000000500, -1.969722204358699300 ) ) ;
#226 = PRODUCT_DEFINITION_SHAPE ( 'NONE', 'NONE',  #662 ) ;
#227 = CARTESIAN_POINT ( 'NONE',  ( 2.281673065447708600, 5.330000000000000100, 1.429999999999999300 ) ) ;
#228 = LINE ( 'NONE', #754, #677 ) ;
#229 = ADVANCED_FACE ( 'NONE', ( #620 ), #488, .F. ) ;
#230 = LINE ( 'NONE', #90, #769 ) ;
#231 = DIRECTION ( 'NONE',  ( -1.057758217059028700E-015, 0.0000000000000000000, 1.000000000000000000 ) ) ;
#232 = EDGE_CURVE ( 'NONE', #324, #495, #443, .T. ) ;
#233 = UNCERTAINTY_MEASURE_WITH_UNIT (LENGTH_MEASURE( 1.000000000000000100E-005 ), #853, 'distance_accuracy_value', 'NONE');
#234 = VERTEX_POINT ( 'NONE', #5 ) ;
#235 = ORIENTED_EDGE ( 'NONE', *, *, #16, .T. ) ;
#236 = CARTESIAN_POINT ( 'NONE',  ( -1.900000000000000400, 1.851909088590096600, -0.2049999999999999900 ) ) ;
#237 = SURFACE_STYLE_FILL_AREA ( #305 ) ;
#238 = VECTOR ( 'NONE', #410, 1000.000000000000000 ) ;
#239 = ORIENTED_EDGE ( 'NONE', *, *, #848, .F. ) ;
#240 = VECTOR ( 'NONE', #585, 1000.000000000000000 ) ;
#241 = DIRECTION ( 'NONE',  ( 0.0000000000000000000, 1.000000000000000000, 0.0000000000000000000 ) ) ;
#242 = LINE ( 'NONE', #736, #238 ) ;
#243 = ORIENTED_EDGE ( 'NONE', *, *, #2, .T. ) ;
#244 = ORIENTED_EDGE ( 'NONE', *, *, #606, .F. ) ;
#245 = ORIENTED_EDGE ( 'NONE', *, *, #848, .T. ) ;
#246 = CARTESIAN_POINT ( 'NONE',  ( 1.500000000000000400, -12.18000000000000000, -0.2049999999999999900 ) ) ;
#247 = CARTESIAN_POINT ( 'NONE',  ( -2.281673065447708600, 4.336808689942017700E-016, 1.429999999999999900 ) ) ;
#248 = ADVANCED_BREP_SHAPE_REPRESENTATION ( 'BC558', ( #733, #514, #24, #431, #55 ), #534 ) ;
#249 = DIRECTION ( 'NONE',  ( 5.288791085295143500E-016, 0.0000000000000000000, -1.000000000000000000 ) ) ;
#250 = EDGE_CURVE ( 'NONE', #324, #369, #47, .T. ) ;
#251 = CARTESIAN_POINT ( 'NONE',  ( -2.281673065447708600, 5.330000000000000100, 1.430000000000000200 ) ) ;
#252 = AXIS2_PLACEMENT_3D ( 'NONE', #516, #241, #314 ) ;
#253 = VECTOR ( 'NONE', #452, 1000.000000000000000 ) ;
#254 = VECTOR ( 'NONE', #768, 1000.000000000000000 ) ;
#255 = ORIENTED_EDGE ( 'NONE', *, *, #39, .F. ) ;
#256 = DIRECTION ( 'NONE',  ( -1.000000000000000000, 0.0000000000000000000, 1.178480622266853700E-016 ) ) ;
#257 = VERTEX_POINT ( 'NONE', #805 ) ;
#258 = VERTEX_POINT ( 'NONE', #155 ) ;
#259 = DIRECTION ( 'NONE',  ( 0.0000000000000000000, 1.000000000000000000, 0.0000000000000000000 ) ) ;
#260 = FILL_AREA_STYLE_COLOUR ( '', #18 ) ;
#261 = CARTESIAN_POINT ( 'NONE',  ( -0.9731274036933681400, 2.400228046629128800, -1.982650132336950300 ) ) ;
#262 = EDGE_CURVE ( 'NONE', #843, #414, #563, .T. ) ;
#263 = CARTESIAN_POINT ( 'NONE',  ( 2.281673065447708600, 5.330000000000000100, 1.429999999999999700 ) ) ;
#264 = VECTOR ( 'NONE', #707, 1000.000000000000000 ) ;
#265 = PRESENTATION_LAYER_ASSIGNMENT (  '', '', ( #649 ) ) ;
#266 = COLOUR_RGB ( '',0.7921568627450980000, 0.8196078431372548800, 0.9333333333333333500 ) ;
#267 = DIRECTION ( 'NONE',  ( -1.220057189232471600E-016, 1.000000000000000000, 0.0000000000000000000 ) ) ;
#268 = CARTESIAN_POINT ( 'NONE',  ( -1.040000000000000500, 3.439999999999999900, -0.2049999999999999900 ) ) ;
#269 = ORIENTED_EDGE ( 'NONE', *, *, #337, .T. ) ;
#270 = ORIENTED_EDGE ( 'NONE', *, *, #670, .T. ) ;
#271 = CARTESIAN_POINT ( 'NONE',  ( 1.000000000000000200, 2.531225840738226700, -1.969722204358699000 ) ) ;
#272 = DIRECTION ( 'NONE',  ( -1.000000000000000000, 0.0000000000000000000, -0.0000000000000000000 ) ) ;
#273 = EDGE_CURVE ( 'NONE', #761, #324, #696, .T. ) ;
#274 = PLANE ( 'NONE',  #112 ) ;
#275 = DIRECTION ( 'NONE',  ( 0.0000000000000000000, 1.000000000000000000, 0.0000000000000000000 ) ) ;
#276 = PRODUCT_DEFINITION_CONTEXT ( 'detailed design', #153, 'design' ) ;
#277 = CARTESIAN_POINT ( 'NONE',  ( 0.7983650235725132700, 2.049202866925020400, -2.054127513383468900 ) ) ;
#278 = CARTESIAN_POINT ( 'NONE',  ( -0.2299999999999999500, 3.439999999999999900, 0.2049999999999999900 ) ) ;
#279 = VECTOR ( 'NONE', #703, 1000.000000000000000 ) ;
#280 = LINE ( 'NONE', #814, #205 ) ;
#281 = PLANE ( 'NONE',  #17 ) ;
#282 = ADVANCED_FACE ( 'NONE', ( #129 ), #614, .F. ) ;
#283 = DIRECTION ( 'NONE',  ( 2.730831502644775200E-016, -1.000000000000000000, 0.0000000000000000000 ) ) ;
#284 = VERTEX_POINT ( 'NONE', #611 ) ;
#285 = DIRECTION ( 'NONE',  ( 0.0000000000000000000, 1.000000000000000000, 0.0000000000000000000 ) ) ;
#286 = DIRECTION ( 'NONE',  ( 1.000000000000000000, 0.0000000000000000000, -0.0000000000000000000 ) ) ;
#287 = VERTEX_POINT ( 'NONE', #550 ) ;
#288 = ADVANCED_FACE ( 'NONE', ( #82 ), #72, .F. ) ;
#289 = AXIS2_PLACEMENT_3D ( 'NONE', #329, #128, #786 ) ;
#290 = SURFACE_SIDE_STYLE ('',( #58 ) ) ;
#291 = ADVANCED_FACE ( 'NONE', ( #646 ), #274, .F. ) ;
#292 = LINE ( 'NONE', #181, #645 ) ;
#293 = ORIENTED_EDGE ( 'NONE', *, *, #667, .T. ) ;
#294 = EDGE_LOOP ( 'NONE', ( #704, #450, #121, #463 ) ) ;
#295 = VERTEX_POINT ( 'NONE', #742 ) ;
#296 = DIRECTION ( 'NONE',  ( -0.0000000000000000000, -1.000000000000000000, -0.0000000000000000000 ) ) ;
#297 = CARTESIAN_POINT ( 'NONE',  ( -0.5064104466087010500, 3.537172265905965700, -2.138718413919211700 ) ) ;
#298 = DIRECTION ( 'NONE',  ( 1.000000000000000000, 0.0000000000000000000, -0.0000000000000000000 ) ) ;
#299 = COLOUR_RGB ( '',0.2509803921568627400, 0.2509803921568627400, 0.2509803921568627400 ) ;
#300 = COLOUR_RGB ( '',0.7921568627450980000, 0.8196078431372548800, 0.9333333333333333500 ) ;
#301 = PLANE ( 'NONE',  #332 ) ;
#302 = EDGE_CURVE ( 'NONE', #386, #833, #583, .T. ) ;
#303 = VECTOR ( 'NONE', #780, 1000.000000000000100 ) ;
#304 = AXIS2_PLACEMENT_3D ( 'NONE', #580, #844, #123 ) ;
#305 = FILL_AREA_STYLE ('',( #389 ) ) ;
#306 = ORIENTED_EDGE ( 'NONE', *, *, #102, .T. ) ;
#307 = ORIENTED_EDGE ( 'NONE', *, *, #113, .F. ) ;
#308 = CARTESIAN_POINT ( 'NONE',  ( -0.2299999999999999500, 3.439999999999999900, -0.2049999999999999900 ) ) ;
#309 = LINE ( 'NONE', #523, #501 ) ;
#310 = DIRECTION ( 'NONE',  ( 5.288791085295143500E-016, -0.0000000000000000000, 1.000000000000000000 ) ) ;
#311 = EDGE_LOOP ( 'NONE', ( #758, #313, #245, #84 ) ) ;
#312 = ORIENTED_EDGE ( 'NONE', *, *, #577, .F. ) ;
#313 = ORIENTED_EDGE ( 'NONE', *, *, #796, .T. ) ;
#314 = DIRECTION ( 'NONE',  ( 0.0000000000000000000, 0.0000000000000000000, -1.000000000000000000 ) ) ;
#315 = PLANE ( 'NONE',  #412 ) ;
#316 = EDGE_CURVE ( 'NONE', #150, #162, #167, .T. ) ;
#317 = PRESENTATION_LAYER_ASSIGNMENT (  '', '', ( #381 ) ) ;
#318 = DIRECTION ( 'NONE',  ( 0.0000000000000000000, -0.0000000000000000000, -1.000000000000000000 ) ) ;
#319 = LINE ( 'NONE', #464, #253 ) ;
#320 = CARTESIAN_POINT ( 'NONE',  ( 0.7984564534951065200, 3.280674168550953100, -2.054093688938108700 ) ) ;
#321 = FACE_OUTER_BOUND ( 'NONE', #409, .T. ) ;
#322 = PRESENTATION_STYLE_ASSIGNMENT (( #61 ) ) ;
#323 = FILL_AREA_STYLE_COLOUR ( '', #266 ) ;
#324 = VERTEX_POINT ( 'NONE', #420 ) ;
#325 = ORIENTED_EDGE ( 'NONE', *, *, #273, .T. ) ;
#326 = EDGE_CURVE ( 'NONE', #257, #625, #280, .T. ) ;
#327 = ORIENTED_EDGE ( 'NONE', *, *, #78, .T. ) ;
#328 = PRESENTATION_LAYER_ASSIGNMENT (  '', '', ( #440 ) ) ;
#329 = CARTESIAN_POINT ( 'NONE',  ( 2.326828918379968400E-017, 4.336808689942017700E-016, 0.1899999999999996700 ) ) ;
#330 = CARTESIAN_POINT ( 'NONE',  ( -0.2299999999999999500, 3.439999999999999900, 0.2049999999999999900 ) ) ;
#331 = CARTESIAN_POINT ( 'NONE',  ( -1.040000000000000500, 1.851909088590096600, 0.2049999999999999900 ) ) ;
#332 = AXIS2_PLACEMENT_3D ( 'NONE', #173, #837, #110 ) ;
#333 = CARTESIAN_POINT ( 'NONE',  ( 1.500000000000000400, 1.851909088590096600, 0.2049999999999999900 ) ) ;
#334 = FACE_OUTER_BOUND ( 'NONE', #544, .T. ) ;
#335 = SURFACE_STYLE_FILL_AREA ( #658 ) ;
#336 = VERTEX_POINT ( 'NONE', #750 ) ;
#337 = EDGE_CURVE ( 'NONE', #495, #23, #773, .T. ) ;
#338 = ORIENTED_EDGE ( 'NONE', *, *, #515, .F. ) ;
#339 = CARTESIAN_POINT ( 'NONE',  ( 2.326828918379968400E-017, 5.330000000000000100, -2.189999999999999900 ) ) ;
#340 = PLANE ( 'NONE',  #571 ) ;
#341 = CARTESIAN_POINT ( 'NONE',  ( -1.040000000000000500, 3.439999999999999900, 0.2049999999999999900 ) ) ;
#342 = CARTESIAN_POINT ( 'NONE',  ( -0.9999999999999995600, 2.665000000000000500, -1.969722204358699700 ) ) ;
#343 = SHAPE_DEFINITION_REPRESENTATION ( #226, #248 ) ;
#344 = CARTESIAN_POINT ( 'NONE',  ( 3.263683719727698100E-016, 2.665000000000000500, -1.850000000000000100 ) ) ;
#345 = LINE ( 'NONE', #115, #820 ) ;
#346 = LINE ( 'NONE', #67, #148 ) ;
#347 = VERTEX_POINT ( 'NONE', #691 ) ;
#348 = DIRECTION ( 'NONE',  ( 0.0000000000000000000, 0.0000000000000000000, 1.000000000000000000 ) ) ;
#349 = EDGE_LOOP ( 'NONE', ( #801, #445 ) ) ;
#350 = DIRECTION ( 'NONE',  ( -1.000000000000000000, 1.220057189232471600E-016, 0.0000000000000000000 ) ) ;
#351 = DIRECTION ( 'NONE',  ( 2.730831502644775200E-016, 1.000000000000000000, 0.0000000000000000000 ) ) ;
#352 = ADVANCED_FACE ( 'NONE', ( #719 ), #15, .T. ) ;
#353 = EDGE_CURVE ( 'NONE', #564, #519, #219, .T. ) ;
#354 = CARTESIAN_POINT ( 'NONE',  ( 0.0000000000000000000, 0.0000000000000000000, 0.0000000000000000000 ) ) ;
#355 = STYLED_ITEM ( 'NONE', ( #176 ), #733 ) ;
#356 = CARTESIAN_POINT ( 'NONE',  ( 0.8723602085111098500, 2.159162837972033300, -2.025027661707006700 ) ) ;
#357 = CARTESIAN_POINT ( 'NONE',  ( 2.326828918379968400E-017, -12.17999999999999800, 0.1899999999999996700 ) ) ;
#358 = CARTESIAN_POINT ( 'NONE',  ( 1.500000000000000400, 1.851909088590096600, 0.2049999999999999900 ) ) ;
#359 = CARTESIAN_POINT ( 'NONE',  ( 1.500000000000000400, 3.439999999999999900, 0.2049999999999999900 ) ) ;
#360 = PRESENTATION_STYLE_ASSIGNMENT (( #11 ) ) ;
#361 = CARTESIAN_POINT ( 'NONE',  ( 1.500000000000000400, 3.439999999999999900, 0.2049999999999999900 ) ) ;
#362 = VECTOR ( 'NONE', #858, 1000.000000000000000 ) ;
#363 = CARTESIAN_POINT ( 'NONE',  ( -1.040000000000000500, 3.439999999999999900, -0.2049999999999999900 ) ) ;
#364 =( LENGTH_UNIT ( ) NAMED_UNIT ( * ) SI_UNIT ( .MILLI., .METRE. ) );
#365 = ORIENTED_EDGE ( 'NONE', *, *, #232, .F. ) ;
#366 = ORIENTED_EDGE ( 'NONE', *, *, #144, .T. ) ;
#367 = DIRECTION ( 'NONE',  ( 1.000000000000000000, 0.0000000000000000000, -0.0000000000000000000 ) ) ;
#368 = UNCERTAINTY_MEASURE_WITH_UNIT (LENGTH_MEASURE( 1.000000000000000100E-005 ), #698, 'distance_accuracy_value', 'NONE');
#369 = VERTEX_POINT ( 'NONE', #498 ) ;
#370 = AXIS2_PLACEMENT_3D ( 'NONE', #344, #804, #286 ) ;
#371 = ADVANCED_FACE ( 'NONE', ( #66 ), #372, .F. ) ;
#372 = PLANE ( 'NONE',  #466 ) ;
#373 = SURFACE_STYLE_USAGE ( .BOTH. , #290 ) ;
#374 = LINE ( 'NONE', #54, #618 ) ;
#375 = VECTOR ( 'NONE', #76, 1000.000000000000000 ) ;
#376 = VERTEX_POINT ( 'NONE', #829 ) ;
#377 = FILL_AREA_STYLE ('',( #702 ) ) ;
#378 = ORIENTED_EDGE ( 'NONE', *, *, #26, .F. ) ;
#379 = SURFACE_STYLE_USAGE ( .BOTH. , #444 ) ;
#380 = ORIENTED_EDGE ( 'NONE', *, *, #48, .T. ) ;
#381 = STYLED_ITEM ( 'NONE', ( #322 ), #24 ) ;
#382 = CARTESIAN_POINT ( 'NONE',  ( -0.9999999999999995600, 2.665000000000000500, -1.969722204358699700 ) ) ;
#383 = VECTOR ( 'NONE', #80, 1000.000000000000000 ) ;
#384 = ORIENTED_EDGE ( 'NONE', *, *, #470, .F. ) ;
#385 = ORIENTED_EDGE ( 'NONE', *, *, #629, .T. ) ;
#386 = VERTEX_POINT ( 'NONE', #164 ) ;
#387 = CARTESIAN_POINT ( 'NONE',  ( 2.326828918379968400E-017, -12.17999999999999800, 0.1899999999999996700 ) ) ;
#388 = CARTESIAN_POINT ( 'NONE',  ( 1.500000000000000400, -12.18000000000000000, 0.2049999999999999900 ) ) ;
#389 = FILL_AREA_STYLE_COLOUR ( '', #299 ) ;
#390 = VECTOR ( 'NONE', #50, 1000.000000000000000 ) ;
#391 = VECTOR ( 'NONE', #296, 1000.000000000000000 ) ;
#392 = CARTESIAN_POINT ( 'NONE',  ( -2.281673065447708600, 5.330000000000000100, 1.429999999999999900 ) ) ;
#393 = ORIENTED_EDGE ( 'NONE', *, *, #316, .T. ) ;
#394 = ORIENTED_EDGE ( 'NONE', *, *, #395, .F. ) ;
#395 = EDGE_CURVE ( 'NONE', #295, #369, #421, .T. ) ;
#396 = DIRECTION ( 'NONE',  ( 1.000000000000000000, 0.0000000000000000000, 0.0000000000000000000 ) ) ;
#397 = PRESENTATION_LAYER_ASSIGNMENT (  '', '', ( #355 ) ) ;
#398 = LINE ( 'NONE', #802, #572 ) ;
#399 = VECTOR ( 'NONE', #757, 1000.000000000000000 ) ;
#400 = FACE_OUTER_BOUND ( 'NONE', #453, .T. ) ;
#401 = VERTEX_POINT ( 'NONE', #557 ) ;
#402 = ORIENTED_EDGE ( 'NONE', *, *, #26, .T. ) ;
#403 = EDGE_CURVE ( 'NONE', #59, #639, #847, .T. ) ;
#404 = DIRECTION ( 'NONE',  ( 0.08613445378151209100, 0.0000000000000000000, -0.9962835218308895300 ) ) ;
#405 = AXIS2_PLACEMENT_3D ( 'NONE', #621, #156, #626 ) ;
#406 = FACE_OUTER_BOUND ( 'NONE', #686, .T. ) ;
#407 = FILL_AREA_STYLE ('',( #260 ) ) ;
#408 = DIRECTION ( 'NONE',  ( -1.220057189232471600E-016, -1.000000000000000000, 0.0000000000000000000 ) ) ;
#409 = EDGE_LOOP ( 'NONE', ( #744, #235, #197, #327 ) ) ;
#410 = DIRECTION ( 'NONE',  ( -1.000000000000000000, 0.0000000000000000000, 1.425535746865771500E-016 ) ) ;
#411 = DIRECTION ( 'NONE',  ( 0.0000000000000000000, 1.000000000000000000, 0.0000000000000000000 ) ) ;
#412 = AXIS2_PLACEMENT_3D ( 'NONE', #790, #52, #191 ) ;
#413 = CARTESIAN_POINT ( 'NONE',  ( 6.233452207660030000E-017, 1.665000000000000300, -2.189999999999999900 ) ) ;
#414 = VERTEX_POINT ( 'NONE', #30 ) ;
#415 = CARTESIAN_POINT ( 'NONE',  ( 1.040000000000000500, 3.439999999999999900, -0.2049999999999999900 ) ) ;
#416 = CARTESIAN_POINT ( 'NONE',  ( -1.500000000000000400, 3.439999999999999900, -0.2049999999999999900 ) ) ;
#417 = EDGE_CURVE ( 'NONE', #133, #287, #682, .T. ) ;
#418 = DIRECTION ( 'NONE',  ( 1.000000000000000000, 0.0000000000000000000, 0.0000000000000000000 ) ) ;
#419 = LINE ( 'NONE', #37, #650 ) ;
#420 = CARTESIAN_POINT ( 'NONE',  ( 0.2299999999999979800, -12.18000000000000000, 0.2049999999999999900 ) ) ;
#421 = LINE ( 'NONE', #105, #254 ) ;
#422 = DIRECTION ( 'NONE',  ( 0.0000000000000000000, -1.000000000000000000, -0.0000000000000000000 ) ) ;
#423 = ADVANCED_FACE ( 'NONE', ( #594 ), #40, .T. ) ;
#424 = CIRCLE ( 'NONE', #689, 2.379999999999999900 ) ;
#425 = ORIENTED_EDGE ( 'NONE', *, *, #446, .F. ) ;
#426 = CARTESIAN_POINT ( 'NONE',  ( 0.2299999999999979800, -12.18000000000000000, 0.2049999999999999900 ) ) ;
#427 = PLANE ( 'NONE',  #511 ) ;
#428 = DIRECTION ( 'NONE',  ( -0.0000000000000000000, 0.0000000000000000000, 1.000000000000000000 ) ) ;
#429 = AXIS2_PLACEMENT_3D ( 'NONE', #632, #641, #695 ) ;
#430 = DIRECTION ( 'NONE',  ( 0.0000000000000000000, 1.000000000000000000, 0.0000000000000000000 ) ) ;
#431 = MANIFOLD_SOLID_BREP ( 'Boss-Extrude2[2]', #554 ) ;
#432 = EDGE_CURVE ( 'NONE', #792, #564, #717, .T. ) ;
#433 = LINE ( 'NONE', #603, #604 ) ;
#434 = FACE_OUTER_BOUND ( 'NONE', #705, .T. ) ;
#435 = VECTOR ( 'NONE', #249, 1000.000000000000000 ) ;
#436 = VERTEX_POINT ( 'NONE', #104 ) ;
#437 = EDGE_LOOP ( 'NONE', ( #551, #312, #637, #338 ) ) ;
#438 = ORIENTED_EDGE ( 'NONE', *, *, #500, .F. ) ;
#439 = EDGE_CURVE ( 'NONE', #258, #257, #204, .T. ) ;
#440 = STYLED_ITEM ( 'NONE', ( #360 ), #248 ) ;
#441 = DIRECTION ( 'NONE',  ( 0.0000000000000000000, 0.0000000000000000000, 1.000000000000000000 ) ) ;
#442 = FACE_OUTER_BOUND ( 'NONE', #142, .T. ) ;
#443 = LINE ( 'NONE', #747, #399 ) ;
#444 = SURFACE_SIDE_STYLE ('',( #237 ) ) ;
#445 = ORIENTED_EDGE ( 'NONE', *, *, #681, .T. ) ;
#446 = EDGE_CURVE ( 'NONE', #436, #493, #172, .T. ) ;
#447 = DIRECTION ( 'NONE',  ( 0.0000000000000000000, 1.000000000000000000, 0.0000000000000000000 ) ) ;
#448 = LINE ( 'NONE', #644, #264 ) ;
#449 = ORIENTED_EDGE ( 'NONE', *, *, #570, .T. ) ;
#450 = ORIENTED_EDGE ( 'NONE', *, *, #713, .T. ) ;
#451 = B_SPLINE_CURVE_WITH_KNOTS ( 'NONE', 3,
 ( #342, #811, #261, #202, #803, #145, #605, #63, #6, #77 ),
 .UNSPECIFIED., .F., .F.,
 ( 4, 2, 2, 2, 4 ),
 ( 0.0000000000000000000, 0.0003951976220292387900, 0.0007903952440584775800, 0.001185592866087716400, 0.001580790488116955200 ),
 .UNSPECIFIED. ) ;
#452 = DIRECTION ( 'NONE',  ( -1.220057189232471600E-016, 1.000000000000000000, 0.0000000000000000000 ) ) ;
#453 = EDGE_LOOP ( 'NONE', ( #293, #636, #701, #380, #723 ) ) ;
#454 = DIRECTION ( 'NONE',  ( -0.0000000000000000000, 1.000000000000000000, 0.0000000000000000000 ) ) ;
#455 = DIRECTION ( 'NONE',  ( 0.9962835218308896400, 0.0000000000000000000, -0.08613445378151209100 ) ) ;
#456 = LINE ( 'NONE', #716, #390 ) ;
#457 = VECTOR ( 'NONE', #99, 1000.000000000000000 ) ;
#458 = CARTESIAN_POINT ( 'NONE',  ( 0.2661860310790507000, 3.637667626686935700, -2.178194561159110300 ) ) ;
#459 = AXIS2_PLACEMENT_3D ( 'NONE', #596, #600, #318 ) ;
#460 = EDGE_LOOP ( 'NONE', ( #740, #325, #51, #269 ) ) ;
#461 = ORIENTED_EDGE ( 'NONE', *, *, #796, .F. ) ;
#462 = CARTESIAN_POINT ( 'NONE',  ( 2.326828918379968400E-017, 5.330000000000000100, 0.1899999999999996700 ) ) ;
#463 = ORIENTED_EDGE ( 'NONE', *, *, #722, .F. ) ;
#464 = CARTESIAN_POINT ( 'NONE',  ( -0.2299999999999999500, 3.439999999999999900, -0.2049999999999999900 ) ) ;
#465 = CARTESIAN_POINT ( 'NONE',  ( 2.326828918379968400E-017, 5.330000000000000100, -2.189999999999999900 ) ) ;
#466 = AXIS2_PLACEMENT_3D ( 'NONE', #767, #825, #367 ) ;
#467 = PLANE ( 'NONE',  #93 ) ;
#468 = PLANE ( 'NONE',  #180 ) ;
#469 = FACE_OUTER_BOUND ( 'NONE', #724, .T. ) ;
#470 = EDGE_CURVE ( 'NONE', #73, #833, #661, .T. ) ;
#471 = ORIENTED_EDGE ( 'NONE', *, *, #529, .F. ) ;
#472 = CARTESIAN_POINT ( 'NONE',  ( 3.263683719727698100E-016, 2.665000000000000500, -1.850000000000000100 ) ) ;
#473 = ORIENTED_EDGE ( 'NONE', *, *, #654, .F. ) ;
#474 = CARTESIAN_POINT ( 'NONE',  ( 1.000000000000000400, 2.665000000000000500, -1.850000000000000100 ) ) ;
#475 = DIRECTION ( 'NONE',  ( -0.9962835218308896400, 0.0000000000000000000, -0.08613445378151210500 ) ) ;
#476 = DIRECTION ( 'NONE',  ( 4.363252645368492300E-015, 0.0000000000000000000, -1.000000000000000000 ) ) ;
#477 = UNCERTAINTY_MEASURE_WITH_UNIT (LENGTH_MEASURE( 1.000000000000000100E-005 ), #766, 'distance_accuracy_value', 'NONE');
#478 = CARTESIAN_POINT ( 'NONE',  ( 0.9726633365456232000, 2.398899264146094400, -1.982852021942749500 ) ) ;
#479 = FACE_OUTER_BOUND ( 'NONE', #437, .T. ) ;
#480 = VECTOR ( 'NONE', #476, 1000.000000000000000 ) ;
#481 = SURFACE_SIDE_STYLE ('',( #711 ) ) ;
#482 = CIRCLE ( 'NONE', #136, 2.379999999999999900 ) ;
#483 = DIRECTION ( 'NONE',  ( 0.0000000000000000000, -0.0000000000000000000, 1.000000000000000000 ) ) ;
#484 = APPLICATION_CONTEXT ( 'automotive_design' ) ;
#485 = ORIENTED_EDGE ( 'NONE', *, *, #395, .T. ) ;
#486 = ADVANCED_FACE ( 'NONE', ( #479 ), #94, .F. ) ;
#487 = DIRECTION ( 'NONE',  ( 0.0000000000000000000, 1.000000000000000000, 0.0000000000000000000 ) ) ;
#488 = PLANE ( 'NONE',  #771 ) ;
#489 = ORIENTED_EDGE ( 'NONE', *, *, #48, .F. ) ;
#490 = DIRECTION ( 'NONE',  ( 0.0000000000000000000, 0.0000000000000000000, 1.000000000000000000 ) ) ;
#491 = CARTESIAN_POINT ( 'NONE',  ( 1.500000000000000400, 1.851909088590096600, -0.2049999999999999900 ) ) ;
#492 = ORIENTED_EDGE ( 'NONE', *, *, #500, .T. ) ;
#493 = VERTEX_POINT ( 'NONE', #382 ) ;
#494 = ADVANCED_FACE ( 'NONE', ( #738 ), #301, .T. ) ;
#495 = VERTEX_POINT ( 'NONE', #42 ) ;
#496 = CARTESIAN_POINT ( 'NONE',  ( -0.2648514608970363700, 3.638133960722097700, -2.178382295032105500 ) ) ;
#497 = AXIS2_PLACEMENT_3D ( 'NONE', #472, #198, #526 ) ;
#498 = CARTESIAN_POINT ( 'NONE',  ( 0.2299999999999997600, -12.18000000000000000, -0.2050000000000000400 ) ) ;
#499 = DIRECTION ( 'NONE',  ( 0.08613445378151209100, -0.0000000000000000000, -0.9962835218308895300 ) ) ;
#500 = EDGE_CURVE ( 'NONE', #610, #595, #448, .T. ) ;
#501 = VECTOR ( 'NONE', #660, 1000.000000000000000 ) ;
#502 = LINE ( 'NONE', #200, #810 ) ;
#503 = CARTESIAN_POINT ( 'NONE',  ( -1.500000000000000900, -12.18000000000000000, 0.2049999999999999900 ) ) ;
#504 = VECTOR ( 'NONE', #806, 1000.000000000000000 ) ;
#505 = ORIENTED_EDGE ( 'NONE', *, *, #159, .F. ) ;
#506 = EDGE_LOOP ( 'NONE', ( #365, #800, #394, #647 ) ) ;
#507 = DIRECTION ( 'NONE',  ( -0.0000000000000000000, -1.000000000000000000, -0.0000000000000000000 ) ) ;
#508 = ORIENTED_EDGE ( 'NONE', *, *, #713, .F. ) ;
#509 = CARTESIAN_POINT ( 'NONE',  ( 2.371154781957517200, 5.330000000000000100, 0.3949999999999986300 ) ) ;
#510 = CIRCLE ( 'NONE', #405, 1.000000000000000000 ) ;
#511 = AXIS2_PLACEMENT_3D ( 'NONE', #357, #430, #20 ) ;
#512 = LINE ( 'NONE', #591, #633 ) ;
#513 = ORIENTED_EDGE ( 'NONE', *, *, #316, .F. ) ;
#514 = MANIFOLD_SOLID_BREP ( 'Housing', #715 ) ;
#515 = EDGE_CURVE ( 'NONE', #401, #258, #592, .T. ) ;
#516 = CARTESIAN_POINT ( 'NONE',  ( 2.326828918379968400E-017, 4.336808689942017700E-016, 0.1899999999999996700 ) ) ;
#517 = VECTOR ( 'NONE', #507, 1000.000000000000000 ) ;
#518 = DIRECTION ( 'NONE',  ( -0.08613445378151207700, 0.0000000000000000000, -0.9962835218308895300 ) ) ;
#519 = VERTEX_POINT ( 'NONE', #778 ) ;
#520 = ORIENTED_EDGE ( 'NONE', *, *, #302, .T. ) ;
#521 = CARTESIAN_POINT ( 'NONE',  ( 2.326828918379968400E-017, 5.330000000000000100, 0.1899999999999996700 ) ) ;
#522 = EDGE_CURVE ( 'NONE', #792, #234, #562, .T. ) ;
#523 = CARTESIAN_POINT ( 'NONE',  ( -0.2299999999999999500, 0.0000000000000000000, 0.2049999999999999900 ) ) ;
#524 =( GEOMETRIC_REPRESENTATION_CONTEXT ( 3 ) GLOBAL_UNCERTAINTY_ASSIGNED_CONTEXT ( ( #607 ) ) GLOBAL_UNIT_ASSIGNED_CONTEXT ( ( #137, #206, #671 ) ) REPRESENTATION_CONTEXT ( 'NONE', 'WORKASPACE' ) );
#525 =( NAMED_UNIT ( * ) PLANE_ANGLE_UNIT ( ) SI_UNIT ( $, .RADIAN. ) );
#526 = DIRECTION ( 'NONE',  ( -1.000000000000000000, 0.0000000000000000000, 0.0000000000000000000 ) ) ;
#527 = FACE_OUTER_BOUND ( 'NONE', #43, .T. ) ;
#528 = VECTOR ( 'NONE', #490, 1000.000000000000000 ) ;
#529 = EDGE_CURVE ( 'NONE', #347, #386, #126, .T. ) ;
#530 = LINE ( 'NONE', #122, #303 ) ;
#531 = SURFACE_SIDE_STYLE ('',( #712 ) ) ;
#532 = EDGE_LOOP ( 'NONE', ( #505, #726, #425, #160, #384 ) ) ;
#533 = CARTESIAN_POINT ( 'NONE',  ( -2.281673065447708600, 5.330000000000000100, 1.430000000000000200 ) ) ;
#534 =( GEOMETRIC_REPRESENTATION_CONTEXT ( 3 ) GLOBAL_UNCERTAINTY_ASSIGNED_CONTEXT ( ( #368 ) ) GLOBAL_UNIT_ASSIGNED_CONTEXT ( ( #698, #146, #817 ) ) REPRESENTATION_CONTEXT ( 'NONE', 'WORKASPACE' ) );
#535 = PLANE ( 'NONE',  #808 ) ;
#536 = DIRECTION ( 'NONE',  ( 2.730831502644775200E-016, -1.000000000000000000, 0.0000000000000000000 ) ) ;
#537 = FACE_OUTER_BOUND ( 'NONE', #223, .T. ) ;
#538 = FACE_OUTER_BOUND ( 'NONE', #169, .T. ) ;
#539 = EDGE_CURVE ( 'NONE', #625, #414, #345, .T. ) ;
#540 = ORIENTED_EDGE ( 'NONE', *, *, #4, .F. ) ;
#541 = AXIS2_PLACEMENT_3D ( 'NONE', #158, #441, #298 ) ;
#542 = ORIENTED_EDGE ( 'NONE', *, *, #102, .F. ) ;
#543 = CARTESIAN_POINT ( 'NONE',  ( 1.040000000000000000, -12.18000000000000000, 0.2049999999999999900 ) ) ;
#544 = EDGE_LOOP ( 'NONE', ( #239, #393, #835, #178 ) ) ;
#545 =( NAMED_UNIT ( * ) PLANE_ANGLE_UNIT ( ) SI_UNIT ( $, .RADIAN. ) );
#546 = CARTESIAN_POINT ( 'NONE',  ( 1.040000000000000000, -12.18000000000000000, -0.2049999999999999900 ) ) ;
#547 = ADVANCED_FACE ( 'NONE', ( #537 ), #569, .T. ) ;
#548 = MECHANICAL_DESIGN_GEOMETRIC_PRESENTATION_REPRESENTATION (  '', ( #381 ), #188 ) ;
#549 = APPLICATION_PROTOCOL_DEFINITION ( 'draft international standard', 'automotive_design', 1998, #484 ) ;
#550 = CARTESIAN_POINT ( 'NONE',  ( 1.040000000000000500, 3.439999999999999900, 0.2049999999999999900 ) ) ;
#551 = ORIENTED_EDGE ( 'NONE', *, *, #68, .F. ) ;
#552 = DIRECTION ( 'NONE',  ( -1.000000000000000000, -0.0000000000000000000, 0.0000000000000000000 ) ) ;
#553 = ORIENTED_EDGE ( 'NONE', *, *, #840, .F. ) ;
#554 = CLOSED_SHELL ( 'NONE', ( #352, #96, #288, #828, #371, #229 ) ) ;
#555 = EDGE_LOOP ( 'NONE', ( #731, #775, #83, #784, #666 ) ) ;
#556 = STYLED_ITEM ( 'NONE', ( #184 ), #431 ) ;
#557 = CARTESIAN_POINT ( 'NONE',  ( -1.040000000000000000, -12.18000000000000000, -0.2049999999999999900 ) ) ;
#558 = CARTESIAN_POINT ( 'NONE',  ( -0.9999999999999997800, 2.798774159261774300, -1.969722204358699700 ) ) ;
#559 = EDGE_CURVE ( 'NONE', #62, #595, #419, .T. ) ;
#560 = VECTOR ( 'NONE', #272, 1000.000000000000000 ) ;
#561 = CARTESIAN_POINT ( 'NONE',  ( 1.000000000000000400, 2.665000000000000500, -1.850000000000000100 ) ) ;
#562 = LINE ( 'NONE', #574, #517 ) ;
#563 = LINE ( 'NONE', #341, #375 ) ;
#564 = VERTEX_POINT ( 'NONE', #509 ) ;
#565 = CARTESIAN_POINT ( 'NONE',  ( -0.7983650235725099400, 3.280797133074983700, -2.054127513383470200 ) ) ;
#566 = VERTEX_POINT ( 'NONE', #308 ) ;
#567 =( LENGTH_UNIT ( ) NAMED_UNIT ( * ) SI_UNIT ( .MILLI., .METRE. ) );
#568 = VERTEX_POINT ( 'NONE', #651 ) ;
#569 = PLANE ( 'NONE',  #215 ) ;
#570 = EDGE_CURVE ( 'NONE', #347, #376, #772, .T. ) ;
#571 = AXIS2_PLACEMENT_3D ( 'NONE', #3, #475, #69 ) ;
#572 = VECTOR ( 'NONE', #404, 1000.000000000000100 ) ;
#573 = VECTOR ( 'NONE', #619, 1000.000000000000000 ) ;
#574 = CARTESIAN_POINT ( 'NONE',  ( 2.281673065447708600, 5.330000000000000100, 1.429999999999999500 ) ) ;
#575 = EDGE_LOOP ( 'NONE', ( #741, #41, #244, #599 ) ) ;
#576 = EDGE_CURVE ( 'NONE', #519, #347, #106, .T. ) ;
#577 = EDGE_CURVE ( 'NONE', #257, #284, #374, .T. ) ;
#578 = DIRECTION ( 'NONE',  ( 1.000000000000000000, -0.0000000000000000000, 0.0000000000000000000 ) ) ;
#579 = LINE ( 'NONE', #617, #781 ) ;
#580 = CARTESIAN_POINT ( 'NONE',  ( 2.326828918379968400E-017, 5.330000000000000100, 0.1899999999999996700 ) ) ;
#581 = AXIS2_PLACEMENT_3D ( 'NONE', #748, #10, #351 ) ;
#582 = LINE ( 'NONE', #491, #383 ) ;
#583 = B_SPLINE_CURVE_WITH_KNOTS ( 'NONE', 3,
 ( #413, #616, #19, #678, #8, #277, #356, #478, #271, #12 ),
 .UNSPECIFIED., .F., .F.,
 ( 4, 2, 2, 2, 4 ),
 ( 3.790502308349337600E-020, 0.0003952333549207455100, 0.0007904667098414909000, 0.001185700064762236000, 0.001580933419682981200 ),
 .UNSPECIFIED. ) ;
#584 = ORIENTED_EDGE ( 'NONE', *, *, #4, .T. ) ;
#585 = DIRECTION ( 'NONE',  ( 1.000000000000000000, -0.0000000000000000000, -1.425535746865771500E-016 ) ) ;
#586 = ORIENTED_EDGE ( 'NONE', *, *, #529, .T. ) ;
#587 = EDGE_CURVE ( 'NONE', #833, #436, #777, .T. ) ;
#588 = ORIENTED_EDGE ( 'NONE', *, *, #432, .F. ) ;
#589 = CARTESIAN_POINT ( 'NONE',  ( 1.040000000000000500, 3.439999999999999900, -0.2049999999999999900 ) ) ;
#590 = CARTESIAN_POINT ( 'NONE',  ( 1.000000000000000700, 2.798770237927908200, -1.969722204358699700 ) ) ;
#591 = CARTESIAN_POINT ( 'NONE',  ( -2.371154781957516700, 5.330000000000000100, 0.3949999999999996300 ) ) ;
#592 = LINE ( 'NONE', #170, #809 ) ;
#593 = CARTESIAN_POINT ( 'NONE',  ( 0.1337573231018978600, 3.664999999999999100, -2.189999999999999500 ) ) ;
#594 = FACE_OUTER_BOUND ( 'NONE', #824, .T. ) ;
#595 = VERTEX_POINT ( 'NONE', #392 ) ;
#596 = CARTESIAN_POINT ( 'NONE',  ( -1.500000000000000400, 3.439999999999999900, 0.2049999999999999900 ) ) ;
#597 = DIRECTION ( 'NONE',  ( 1.000000000000000000, 0.0000000000000000000, -0.0000000000000000000 ) ) ;
#598 = ORIENTED_EDGE ( 'NONE', *, *, #35, .F. ) ;
#599 = ORIENTED_EDGE ( 'NONE', *, *, #622, .F. ) ;
#600 = DIRECTION ( 'NONE',  ( 0.0000000000000000000, -1.000000000000000000, 0.0000000000000000000 ) ) ;
#601 = PRESENTATION_LAYER_ASSIGNMENT (  '', '', ( #556 ) ) ;
#602 = CARTESIAN_POINT ( 'NONE',  ( 2.326828918379968400E-017, 5.330000000000000100, 0.1899999999999996700 ) ) ;
#603 = CARTESIAN_POINT ( 'NONE',  ( 1.040000000000000500, 3.439999999999999900, 0.2049999999999999900 ) ) ;
#604 = VECTOR ( 'NONE', #203, 1000.000000000000000 ) ;
#605 = CARTESIAN_POINT ( 'NONE',  ( -0.5062752342971573700, 1.792863140164476300, -2.138709056490863100 ) ) ;
#606 = EDGE_CURVE ( 'NONE', #295, #495, #292, .T. ) ;
#607 = UNCERTAINTY_MEASURE_WITH_UNIT (LENGTH_MEASURE( 1.000000000000000100E-005 ), #137, 'distance_accuracy_value', 'NONE');
#608 = LINE ( 'NONE', #246, #149 ) ;
#609 = CARTESIAN_POINT ( 'NONE',  ( 0.0000000000000000000, 0.0000000000000000000, -0.2049999999999999900 ) ) ;
#610 = VERTEX_POINT ( 'NONE', #247 ) ;
#611 = CARTESIAN_POINT ( 'NONE',  ( -1.040000000000000300, -12.18000000000000000, 0.2049999999999999900 ) ) ;
#612 = ORIENTED_EDGE ( 'NONE', *, *, #522, .F. ) ;
#613 = ORIENTED_EDGE ( 'NONE', *, *, #46, .T. ) ;
#614 = PLANE ( 'NONE',  #851 ) ;
#615 = MECHANICAL_DESIGN_GEOMETRIC_PRESENTATION_REPRESENTATION (  '', ( #440 ), #151 ) ;
#616 = CARTESIAN_POINT ( 'NONE',  ( 0.1337472061547121700, 1.665000000000000000, -2.190000000000000400 ) ) ;
#617 = CARTESIAN_POINT ( 'NONE',  ( 1.500000000000000400, 3.439999999999999900, 0.2049999999999999900 ) ) ;
#618 = VECTOR ( 'NONE', #396, 1000.000000000000000 ) ;
#619 = DIRECTION ( 'NONE',  ( 1.000000000000000000, 0.0000000000000000000, 0.0000000000000000000 ) ) ;
#620 = FACE_OUTER_BOUND ( 'NONE', #199, .T. ) ;
#621 = CARTESIAN_POINT ( 'NONE',  ( 3.263683719727698100E-016, 2.665000000000000500, -1.850000000000000100 ) ) ;
#622 = EDGE_CURVE ( 'NONE', #566, #295, #456, .T. ) ;
#623 = FACE_OUTER_BOUND ( 'NONE', #575, .T. ) ;
#624 = ORIENTED_EDGE ( 'NONE', *, *, #576, .T. ) ;
#625 = VERTEX_POINT ( 'NONE', #187 ) ;
#626 = DIRECTION ( 'NONE',  ( -1.000000000000000000, 0.0000000000000000000, 0.0000000000000000000 ) ) ;
#627 = ADVANCED_FACE ( 'NONE', ( #442 ), #190, .F. ) ;
#628 = CARTESIAN_POINT ( 'NONE',  ( 1.190501983501664600E-014, 3.665000000000000500, -2.189999999999999900 ) ) ;
#629 = EDGE_CURVE ( 'NONE', #49, #566, #319, .T. ) ;
#630 = PLANE ( 'NONE',  #725 ) ;
#631 = ADVANCED_FACE ( 'NONE', ( #798 ), #81, .F. ) ;
#632 = CARTESIAN_POINT ( 'NONE',  ( 2.326828918379968400E-017, 5.330000000000000100, 0.1899999999999996700 ) ) ;
#633 = VECTOR ( 'NONE', #669, 1000.000000000000000 ) ;
#634 = CARTESIAN_POINT ( 'NONE',  ( -0.9999999999999995600, 2.665000000000000500, -1.969722204358699700 ) ) ;
#635 = ADVANCED_FACE ( 'NONE', ( #116 ), #782, .T. ) ;
#636 = ORIENTED_EDGE ( 'NONE', *, *, #432, .T. ) ;
#637 = ORIENTED_EDGE ( 'NONE', *, *, #439, .F. ) ;
#638 = PRODUCT ( 'BC558', 'BC558', '', ( #22 ) ) ;
#639 = VERTEX_POINT ( 'NONE', #657 ) ;
#640 = UNCERTAINTY_MEASURE_WITH_UNIT (LENGTH_MEASURE( 1.000000000000000100E-005 ), #567, 'distance_accuracy_value', 'NONE');
#641 = DIRECTION ( 'NONE',  ( -0.0000000000000000000, -1.000000000000000000, -0.0000000000000000000 ) ) ;
#642 = EDGE_CURVE ( 'NONE', #23, #761, #309, .T. ) ;
#643 = COLOUR_RGB ( '',0.7921568627450980000, 0.8196078431372548800, 0.9333333333333333500 ) ;
#644 = CARTESIAN_POINT ( 'NONE',  ( -2.281673065447708600, 5.330000000000000100, 1.430000000000000200 ) ) ;
#645 = VECTOR ( 'NONE', #856, 1000.000000000000000 ) ;
#646 = FACE_OUTER_BOUND ( 'NONE', #294, .T. ) ;
#647 = ORIENTED_EDGE ( 'NONE', *, *, #606, .T. ) ;
#648 = ORIENTED_EDGE ( 'NONE', *, *, #654, .T. ) ;
#649 = STYLED_ITEM ( 'NONE', ( #147 ), #514 ) ;
#650 = VECTOR ( 'NONE', #174, 1000.000000000000100 ) ;
#651 = CARTESIAN_POINT ( 'NONE',  ( -0.9999999999999995600, 2.665000000000000500, -1.850000000000000100 ) ) ;
#652 = ORIENTED_EDGE ( 'NONE', *, *, #250, .F. ) ;
#653 = ORIENTED_EDGE ( 'NONE', *, *, #302, .F. ) ;
#654 = EDGE_CURVE ( 'NONE', #369, #49, #680, .T. ) ;
#655 = CARTESIAN_POINT ( 'NONE',  ( 1.190501983501664600E-014, 3.665000000000000500, -2.189999999999999900 ) ) ;
#656 = ORIENTED_EDGE ( 'NONE', *, *, #439, .T. ) ;
#657 = CARTESIAN_POINT ( 'NONE',  ( 1.500000000000000400, 3.439999999999999900, -0.2049999999999999900 ) ) ;
#658 = FILL_AREA_STYLE ('',( #323 ) ) ;
#659 = VECTOR ( 'NONE', #749, 1000.000000000000000 ) ;
#660 = DIRECTION ( 'NONE',  ( 0.0000000000000000000, -1.000000000000000000, -0.0000000000000000000 ) ) ;
#661 = LINE ( 'NONE', #561, #279 ) ;
#662 = PRODUCT_DEFINITION ( 'UNKNOWN', '', #746, #276 ) ;
#663 =( NAMED_UNIT ( * ) SI_UNIT ( $, .STERADIAN. ) SOLID_ANGLE_UNIT ( ) );
#664 = FACE_OUTER_BOUND ( 'NONE', #532, .T. ) ;
#665 = LINE ( 'NONE', #333, #117 ) ;
#666 = ORIENTED_EDGE ( 'NONE', *, *, #576, .F. ) ;
#667 = EDGE_CURVE ( 'NONE', #595, #792, #95, .T. ) ;
#668 = AXIS2_PLACEMENT_3D ( 'NONE', #220, #751, #764 ) ;
#669 = DIRECTION ( 'NONE',  ( 0.0000000000000000000, 1.000000000000000000, 0.0000000000000000000 ) ) ;
#670 = EDGE_CURVE ( 'NONE', #436, #776, #65, .T. ) ;
#671 =( NAMED_UNIT ( * ) SI_UNIT ( $, .STERADIAN. ) SOLID_ANGLE_UNIT ( ) );
#672 = DIRECTION ( 'NONE',  ( 0.0000000000000000000, 0.0000000000000000000, 1.000000000000000000 ) ) ;
#673 = ORIENTED_EDGE ( 'NONE', *, *, #262, .F. ) ;
#674 = ORIENTED_EDGE ( 'NONE', *, *, #826, .T. ) ;
#675 = CARTESIAN_POINT ( 'NONE',  ( 0.2299999999999999500, 3.439999999999999900, 0.2049999999999999900 ) ) ;
#676 = PLANE ( 'NONE',  #735 ) ;
#677 = VECTOR ( 'NONE', #418, 1000.000000000000000 ) ;
#678 = CARTESIAN_POINT ( 'NONE',  ( 0.5064104466087087100, 1.792827734094038400, -2.138718413919211200 ) ) ;
#679 = CARTESIAN_POINT ( 'NONE',  ( 2.326828918379968400E-017, 0.0000000000000000000, 0.1899999999999996700 ) ) ;
#680 = LINE ( 'NONE', #850, #830 ) ;
#681 = EDGE_CURVE ( 'NONE', #73, #568, #7, .T. ) ;
#682 = LINE ( 'NONE', #818, #107 ) ;
#683 = LINE ( 'NONE', #388, #130 ) ;
#684 = CARTESIAN_POINT ( 'NONE',  ( 0.2299999999999997600, -12.18000000000000000, -0.2050000000000000400 ) ) ;
#685 = ORIENTED_EDGE ( 'NONE', *, *, #46, .F. ) ;
#686 = EDGE_LOOP ( 'NONE', ( #221, #656, #700, #120 ) ) ;
#687 = DIRECTION ( 'NONE',  ( -1.000000000000000000, -2.730831502644775200E-016, 0.0000000000000000000 ) ) ;
#688 = DIRECTION ( 'NONE',  ( -0.0000000000000000000, -0.0000000000000000000, 1.000000000000000000 ) ) ;
#689 = AXIS2_PLACEMENT_3D ( 'NONE', #462, #259, #846 ) ;
#690 = ADVANCED_FACE ( 'NONE', ( #434 ), #135, .F. ) ;
#691 = CARTESIAN_POINT ( 'NONE',  ( -2.681976490132703700E-016, 4.336808689942017700E-016, -2.189999999999999900 ) ) ;
#692 = CARTESIAN_POINT ( 'NONE',  ( 1.040000000000000000, -12.18000000000000000, 0.2049999999999999900 ) ) ;
#693 =( NAMED_UNIT ( * ) SI_UNIT ( $, .STERADIAN. ) SOLID_ANGLE_UNIT ( ) );
#694 = FACE_OUTER_BOUND ( 'NONE', #349, .T. ) ;
#695 = DIRECTION ( 'NONE',  ( 0.0000000000000000000, 0.0000000000000000000, -1.000000000000000000 ) ) ;
#696 = LINE ( 'NONE', #426, #573 ) ;
#697 = ORIENTED_EDGE ( 'NONE', *, *, #127, .T. ) ;
#698 =( LENGTH_UNIT ( ) NAMED_UNIT ( * ) SI_UNIT ( .MILLI., .METRE. ) );
#699 = AXIS2_PLACEMENT_3D ( 'NONE', #132, #455, #518 ) ;
#700 = ORIENTED_EDGE ( 'NONE', *, *, #326, .T. ) ;
#701 = ORIENTED_EDGE ( 'NONE', *, *, #39, .T. ) ;
#702 = FILL_AREA_STYLE_COLOUR ( '', #300 ) ;
#703 = DIRECTION ( 'NONE',  ( 0.0000000000000000000, 0.0000000000000000000, -1.000000000000000000 ) ) ;
#704 = ORIENTED_EDGE ( 'NONE', *, *, #262, .T. ) ;
#705 = EDGE_LOOP ( 'NONE', ( #485, #648, #385, #111 ) ) ;
#706 = PRODUCT_RELATED_PRODUCT_CATEGORY ( 'part', '', ( #638 ) ) ;
#707 = DIRECTION ( 'NONE',  ( 0.0000000000000000000, 1.000000000000000000, 0.0000000000000000000 ) ) ;
#708 = DIRECTION ( 'NONE',  ( 0.0000000000000000000, 0.0000000000000000000, -1.000000000000000000 ) ) ;
#709 = EDGE_CURVE ( 'NONE', #234, #519, #398, .T. ) ;
#710 =( GEOMETRIC_REPRESENTATION_CONTEXT ( 3 ) GLOBAL_UNCERTAINTY_ASSIGNED_CONTEXT ( ( #640 ) ) GLOBAL_UNIT_ASSIGNED_CONTEXT ( ( #567, #834, #714 ) ) REPRESENTATION_CONTEXT ( 'NONE', 'WORKASPACE' ) );
#711 = SURFACE_STYLE_FILL_AREA ( #807 ) ;
#712 = SURFACE_STYLE_FILL_AREA ( #407 ) ;
#713 = EDGE_CURVE ( 'NONE', #414, #284, #38, .T. ) ;
#714 =( NAMED_UNIT ( * ) SI_UNIT ( $, .STERADIAN. ) SOLID_ANGLE_UNIT ( ) );
#715 = CLOSED_SHELL ( 'NONE', ( #762, #85, #813, #33, #627, #423, #635, #157, #631, #816 ) ) ;
#716 = CARTESIAN_POINT ( 'NONE',  ( -0.2299999999999999500, 3.439999999999999900, -0.2049999999999999900 ) ) ;
#717 = LINE ( 'NONE', #227, #45 ) ;
#718 = CARTESIAN_POINT ( 'NONE',  ( 0.6163998147424167900, 3.462896395739701200, -2.110769536751855700 ) ) ;
#719 = FACE_OUTER_BOUND ( 'NONE', #823, .T. ) ;
#720 = DIRECTION ( 'NONE',  ( 0.0000000000000000000, 0.0000000000000000000, -1.000000000000000000 ) ) ;
#721 = ORIENTED_EDGE ( 'NONE', *, *, #273, .F. ) ;
#722 = EDGE_CURVE ( 'NONE', #843, #401, #192, .T. ) ;
#723 = ORIENTED_EDGE ( 'NONE', *, *, #559, .T. ) ;
#724 = EDGE_LOOP ( 'NONE', ( #21, #25, #673, #732 ) ) ;
#725 = AXIS2_PLACEMENT_3D ( 'NONE', #13, #224, #759 ) ;
#726 = ORIENTED_EDGE ( 'NONE', *, *, #127, .F. ) ;
#727 = CARTESIAN_POINT ( 'NONE',  ( -1.040000000000000000, -12.18000000000000000, -0.2049999999999999900 ) ) ;
#728 = AXIS2_PLACEMENT_3D ( 'NONE', #521, #196, #795 ) ;
#729 = LINE ( 'NONE', #815, #789 ) ;
#730 = CARTESIAN_POINT ( 'NONE',  ( -1.900000000000000400, 1.851909088590096600, 0.2049999999999999900 ) ) ;
#731 = ORIENTED_EDGE ( 'NONE', *, *, #709, .F. ) ;
#732 = ORIENTED_EDGE ( 'NONE', *, *, #826, .F. ) ;
#733 = MANIFOLD_SOLID_BREP ( 'Boss-Extrude2[1]', #109 ) ;
#734 = DIRECTION ( 'NONE',  ( 0.0000000000000000000, 0.0000000000000000000, -1.000000000000000000 ) ) ;
#735 = AXIS2_PLACEMENT_3D ( 'NONE', #730, #734, #737 ) ;
#736 = CARTESIAN_POINT ( 'NONE',  ( -2.281673065447708600, 4.336808689942017700E-016, 1.430000000000000200 ) ) ;
#737 = DIRECTION ( 'NONE',  ( -1.000000000000000000, 0.0000000000000000000, -0.0000000000000000000 ) ) ;
#738 = FACE_OUTER_BOUND ( 'NONE', #460, .T. ) ;
#739 = PLANE ( 'NONE',  #370 ) ;
#740 = ORIENTED_EDGE ( 'NONE', *, *, #642, .T. ) ;
#741 = ORIENTED_EDGE ( 'NONE', *, *, #78, .F. ) ;
#742 = CARTESIAN_POINT ( 'NONE',  ( 0.2299999999999994500, 3.439999999999999900, -0.2049999999999999900 ) ) ;
#743 = CARTESIAN_POINT ( 'NONE',  ( -2.371154781957517200, 5.330000000000000100, 0.3949999999999990200 ) ) ;
#744 = ORIENTED_EDGE ( 'NONE', *, *, #629, .F. ) ;
#745 = ORIENTED_EDGE ( 'NONE', *, *, #16, .F. ) ;
#746 = PRODUCT_DEFINITION_FORMATION_WITH_SPECIFIED_SOURCE ( 'ANY', '', #638, .NOT_KNOWN. ) ;
#747 = CARTESIAN_POINT ( 'NONE',  ( 0.2299999999999979800, 0.0000000000000000000, 0.2049999999999999900 ) ) ;
#748 = CARTESIAN_POINT ( 'NONE',  ( 1.040000000000000500, 3.439999999999999900, 0.2049999999999999900 ) ) ;
#749 = DIRECTION ( 'NONE',  ( 2.730831502644775200E-016, 1.000000000000000000, 0.0000000000000000000 ) ) ;
#750 = CARTESIAN_POINT ( 'NONE',  ( 1.500000000000000400, -12.18000000000000000, 0.2049999999999999900 ) ) ;
#751 = DIRECTION ( 'NONE',  ( 0.0000000000000000000, 0.0000000000000000000, -1.000000000000000000 ) ) ;
#752 = ADVANCED_FACE ( 'NONE', ( #125 ), #676, .F. ) ;
#753 = VECTOR ( 'NONE', #552, 1000.000000000000000 ) ;
#754 = CARTESIAN_POINT ( 'NONE',  ( -1.500000000000000400, 3.439999999999999900, -0.2049999999999999900 ) ) ;
#755 =( GEOMETRIC_REPRESENTATION_CONTEXT ( 3 ) GLOBAL_UNCERTAINTY_ASSIGNED_CONTEXT ( ( #785 ) ) GLOBAL_UNIT_ASSIGNED_CONTEXT ( ( #364, #91, #827 ) ) REPRESENTATION_CONTEXT ( 'NONE', 'WORKASPACE' ) );
#756 = EDGE_LOOP ( 'NONE', ( #32, #653, #542, #697, #131 ) ) ;
#757 = DIRECTION ( 'NONE',  ( -0.0000000000000000000, 1.000000000000000000, 0.0000000000000000000 ) ) ;
#758 = ORIENTED_EDGE ( 'NONE', *, *, #113, .T. ) ;
#759 = DIRECTION ( 'NONE',  ( 0.0000000000000000000, 0.0000000000000000000, -1.000000000000000000 ) ) ;
#760 = ORIENTED_EDGE ( 'NONE', *, *, #100, .F. ) ;
#761 = VERTEX_POINT ( 'NONE', #797 ) ;
#762 = ADVANCED_FACE ( 'NONE', ( #92 ), #468, .F. ) ;
#763 = EDGE_CURVE ( 'NONE', #59, #287, #433, .T. ) ;
#764 = DIRECTION ( 'NONE',  ( -1.000000000000000000, 0.0000000000000000000, 0.0000000000000000000 ) ) ;
#765 = CLOSED_SHELL ( 'NONE', ( #494, #29, #282, #103, #690, #217 ) ) ;
#766 =( LENGTH_UNIT ( ) NAMED_UNIT ( * ) SI_UNIT ( .MILLI., .METRE. ) );
#767 = CARTESIAN_POINT ( 'NONE',  ( 1.900000000000000400, 1.851909088590096600, -0.2049999999999999900 ) ) ;
#768 = DIRECTION ( 'NONE',  ( -1.220057189232471600E-016, -1.000000000000000000, 0.0000000000000000000 ) ) ;
#769 = VECTOR ( 'NONE', #688, 1000.000000000000000 ) ;
#770 = CARTESIAN_POINT ( 'NONE',  ( 2.371154781957516700, 5.330000000000000100, 0.3949999999999988500 ) ) ;
#771 = AXIS2_PLACEMENT_3D ( 'NONE', #819, #487, #483 ) ;
#772 = CIRCLE ( 'NONE', #252, 2.379999999999999900 ) ;
#773 = LINE ( 'NONE', #89, #753 ) ;
#774 = DIRECTION ( 'NONE',  ( -1.000000000000000000, 0.0000000000000000000, -0.0000000000000000000 ) ) ;
#775 = ORIENTED_EDGE ( 'NONE', *, *, #100, .T. ) ;
#776 = VERTEX_POINT ( 'NONE', #339 ) ;
#777 = B_SPLINE_CURVE_WITH_KNOTS ( 'NONE', 3,
 ( #788, #590, #183, #854, #320, #718, #845, #458, #593, #655 ),
 .UNSPECIFIED., .F., .F.,
 ( 4, 2, 2, 2, 4 ),
 ( 0.0000000000000000000, 0.0003951976220292360800, 0.0007903952440584721600, 0.001185592866087708300, 0.001580790488116943900 ),
 .UNSPECIFIED. ) ;
#778 = CARTESIAN_POINT ( 'NONE',  ( 2.371154781957516300, 0.0000000000000000000, 0.3949999999999986300 ) ) ;
#779 = DIRECTION ( 'NONE',  ( -1.000000000000000000, 0.0000000000000000000, -0.0000000000000000000 ) ) ;
#780 = DIRECTION ( 'NONE',  ( 0.08613445378151207700, 0.0000000000000000000, 0.9962835218308895300 ) ) ;
#781 = VECTOR ( 'NONE', #428, 1000.000000000000000 ) ;
#782 = CYLINDRICAL_SURFACE ( 'NONE', #304, 2.379999999999999900 ) ;
#783 = FACE_OUTER_BOUND ( 'NONE', #555, .T. ) ;
#784 = ORIENTED_EDGE ( 'NONE', *, *, #570, .F. ) ;
#785 = UNCERTAINTY_MEASURE_WITH_UNIT (LENGTH_MEASURE( 1.000000000000000100E-005 ), #364, 'distance_accuracy_value', 'NONE');
#786 = DIRECTION ( 'NONE',  ( 1.776356839400250500E-015, 0.0000000000000000000, -1.000000000000000000 ) ) ;
#787 = VECTOR ( 'NONE', #447, 1000.000000000000000 ) ;
#788 = CARTESIAN_POINT ( 'NONE',  ( 1.000000000000000400, 2.665000000000000500, -1.969722204358699300 ) ) ;
#789 = VECTOR ( 'NONE', #422, 1000.000000000000000 ) ;
#790 = CARTESIAN_POINT ( 'NONE',  ( -0.2299999999999999500, 3.439999999999999900, 0.2049999999999999900 ) ) ;
#791 = ORIENTED_EDGE ( 'NONE', *, *, #709, .T. ) ;
#792 = VERTEX_POINT ( 'NONE', #263 ) ;
#793 = AXIS2_PLACEMENT_3D ( 'NONE', #359, #207, #212 ) ;
#794 = PLANE ( 'NONE',  #459 ) ;
#795 = DIRECTION ( 'NONE',  ( 0.0000000000000000000, -0.0000000000000000000, 1.000000000000000000 ) ) ;
#796 = EDGE_CURVE ( 'NONE', #101, #150, #114, .T. ) ;
#797 = CARTESIAN_POINT ( 'NONE',  ( -0.2299999999999997600, -12.18000000000000000, 0.2049999999999999900 ) ) ;
#798 = FACE_OUTER_BOUND ( 'NONE', #756, .T. ) ;
#799 = CARTESIAN_POINT ( 'NONE',  ( 1.040000000000000000, -12.18000000000000000, -0.2049999999999999900 ) ) ;
#800 = ORIENTED_EDGE ( 'NONE', *, *, #250, .T. ) ;
#801 = ORIENTED_EDGE ( 'NONE', *, *, #159, .T. ) ;
#802 = CARTESIAN_POINT ( 'NONE',  ( 2.281673065447708600, 0.0000000000000000000, 1.429999999999999300 ) ) ;
#803 = CARTESIAN_POINT ( 'NONE',  ( -0.7984564534951029700, 2.049325831449043900, -2.054093688938110100 ) ) ;
#804 = DIRECTION ( 'NONE',  ( 0.0000000000000000000, 0.0000000000000000000, 1.000000000000000000 ) ) ;
#805 = CARTESIAN_POINT ( 'NONE',  ( -1.500000000000000900, -12.18000000000000000, 0.2049999999999999900 ) ) ;
#806 = DIRECTION ( 'NONE',  ( 0.0000000000000000000, -0.0000000000000000000, -1.000000000000000000 ) ) ;
#807 = FILL_AREA_STYLE ('',( #214 ) ) ;
#808 = AXIS2_PLACEMENT_3D ( 'NONE', #679, #275, #863 ) ;
#809 = VECTOR ( 'NONE', #779, 1000.000000000000000 ) ;
#810 = VECTOR ( 'NONE', #285, 1000.000000000000000 ) ;
#811 = CARTESIAN_POINT ( 'NONE',  ( -0.9999999999999995600, 2.531229762072091400, -1.969722204358699700 ) ) ;
#812 = DIRECTION ( 'NONE',  ( 0.0000000000000000000, 0.0000000000000000000, 1.000000000000000000 ) ) ;
#813 = ADVANCED_FACE ( 'NONE', ( #527 ), #340, .F. ) ;
#814 = CARTESIAN_POINT ( 'NONE',  ( -1.500000000000000700, 1.851909088590096600, 0.2049999999999999900 ) ) ;
#815 = CARTESIAN_POINT ( 'NONE',  ( 1.040000000000000500, 1.851909088590096600, 0.2049999999999999900 ) ) ;
#816 = ADVANCED_FACE ( 'NONE', ( #694 ), #739, .F. ) ;
#817 =( NAMED_UNIT ( * ) SI_UNIT ( $, .STERADIAN. ) SOLID_ANGLE_UNIT ( ) );
#818 = CARTESIAN_POINT ( 'NONE',  ( 1.900000000000000400, 3.439999999999999900, 0.2049999999999999900 ) ) ;
#819 = CARTESIAN_POINT ( 'NONE',  ( 2.326828918379968400E-017, -12.17999999999999800, 0.1899999999999996700 ) ) ;
#820 = VECTOR ( 'NONE', #578, 1000.000000000000000 ) ;
#821 = MECHANICAL_DESIGN_GEOMETRIC_PRESENTATION_REPRESENTATION (  '', ( #355 ), #524 ) ;
#822 = CARTESIAN_POINT ( 'NONE',  ( 1.500000000000000400, 3.439999999999999900, -0.2049999999999999900 ) ) ;
#823 = EDGE_LOOP ( 'NONE', ( #836, #584, #86, #70 ) ) ;
#824 = EDGE_LOOP ( 'NONE', ( #520, #186, #270, #255, #832, #624, #586 ) ) ;
#825 = DIRECTION ( 'NONE',  ( 0.0000000000000000000, 0.0000000000000000000, 1.000000000000000000 ) ) ;
#826 = EDGE_CURVE ( 'NONE', #222, #843, #228, .T. ) ;
#827 =( NAMED_UNIT ( * ) SI_UNIT ( $, .STERADIAN. ) SOLID_ANGLE_UNIT ( ) );
#828 = ADVANCED_FACE ( 'NONE', ( #165 ), #281, .F. ) ;
#829 = CARTESIAN_POINT ( 'NONE',  ( -2.371154781957517200, 8.673617379884035500E-016, 0.3949999999999990200 ) ) ;
#830 = VECTOR ( 'NONE', #256, 1000.000000000000000 ) ;
#831 = CYLINDRICAL_SURFACE ( 'NONE', #668, 1.000000000000000000 ) ;
#832 = ORIENTED_EDGE ( 'NONE', *, *, #353, .T. ) ;
#833 = VERTEX_POINT ( 'NONE', #225 ) ;
#834 =( NAMED_UNIT ( * ) PLANE_ANGLE_UNIT ( ) SI_UNIT ( $, .RADIAN. ) );
#835 = ORIENTED_EDGE ( 'NONE', *, *, #182, .F. ) ;
#836 = ORIENTED_EDGE ( 'NONE', *, *, #182, .T. ) ;
#837 = DIRECTION ( 'NONE',  ( 0.0000000000000000000, 0.0000000000000000000, 1.000000000000000000 ) ) ;
#838 = AXIS2_PLACEMENT_3D ( 'NONE', #609, #672, #597 ) ;
#839 = VECTOR ( 'NONE', #411, 1000.000000000000000 ) ;
#840 = EDGE_CURVE ( 'NONE', #639, #133, #579, .T. ) ;
#841 = DIRECTION ( 'NONE',  ( 0.0000000000000000000, 1.000000000000000000, 0.0000000000000000000 ) ) ;
#842 = DIRECTION ( 'NONE',  ( 1.000000000000000000, 0.0000000000000000000, 0.0000000000000000000 ) ) ;
#843 = VERTEX_POINT ( 'NONE', #363 ) ;
#844 = DIRECTION ( 'NONE',  ( -0.0000000000000000000, -1.000000000000000000, -0.0000000000000000000 ) ) ;
#845 = CARTESIAN_POINT ( 'NONE',  ( 0.5062752342971647000, 3.537136859835521300, -2.138709056490860800 ) ) ;
#846 = DIRECTION ( 'NONE',  ( 1.776356839400250500E-015, 0.0000000000000000000, -1.000000000000000000 ) ) ;
#847 = LINE ( 'NONE', #822, #457 ) ;
#848 = EDGE_CURVE ( 'NONE', #150, #59, #175, .T. ) ;
#849 = VECTOR ( 'NONE', #310, 1000.000000000000000 ) ;
#850 = CARTESIAN_POINT ( 'NONE',  ( -0.2299999999999999500, -12.18000000000000000, -0.2049999999999999900 ) ) ;
#851 = AXIS2_PLACEMENT_3D ( 'NONE', #675, #350, #408 ) ;
#852 = ORIENTED_EDGE ( 'NONE', *, *, #722, .T. ) ;
#853 =( LENGTH_UNIT ( ) NAMED_UNIT ( * ) SI_UNIT ( .MILLI., .METRE. ) );
#854 = CARTESIAN_POINT ( 'NONE',  ( 0.8723951551775049900, 3.170972157666447400, -2.025019691692508500 ) ) ;
#855 = SURFACE_SIDE_STYLE ('',( #335 ) ) ;
#856 = DIRECTION ( 'NONE',  ( -0.0000000000000000000, 0.0000000000000000000, 1.000000000000000000 ) ) ;
#857 = VECTOR ( 'NONE', #536, 1000.000000000000000 ) ;
#858 = DIRECTION ( 'NONE',  ( -0.0000000000000000000, -1.000000000000000000, -0.0000000000000000000 ) ) ;
#859 = CARTESIAN_POINT ( 'NONE',  ( 1.500000000000000400, -12.18000000000000000, -0.2049999999999999900 ) ) ;
#860 = ORIENTED_EDGE ( 'NONE', *, *, #539, .F. ) ;
#861 = MECHANICAL_DESIGN_GEOMETRIC_PRESENTATION_REPRESENTATION (  '', ( #556 ), #755 ) ;
#862 = ORIENTED_EDGE ( 'NONE', *, *, #417, .F. ) ;
#863 = DIRECTION ( 'NONE',  ( 0.0000000000000000000, -0.0000000000000000000, 1.000000000000000000 ) ) ;
ENDSEC;
END-ISO-10303-21;
